<svg class="bd-placeholder-img bd-placeholder-img-lg img-fluid" 
    width="100%" height="250" xmlns="http://www.w3.org/2000/svg" 
    preserveAspectRatio="xMidYMid slice" focusable="false" 
    role="img">
    <rect fill="#eeeeee" width="100%" height="100%"></rect>
</svg>
